<svg width="34" height="34" viewBox="0 0 34 34" fill="none" xmlns="http://www.w3.org/2000/svg">
<path d="M24.378 0C30.141 0 34 4.046 34 10.064V23.9547C34 29.954 30.141 34 24.378 34H9.639C3.876 34 0 29.954 0 23.9547V10.064C0 4.046 3.876 0 9.639 0H24.378ZM24.106 11.9C23.528 11.322 22.576 11.322 21.998 11.9L14.977 18.921L12.002 15.946C11.424 15.368 10.472 15.368 9.894 15.946C9.316 16.524 9.316 17.459 9.894 18.054L13.94 22.083C14.229 22.372 14.603 22.508 14.977 22.508C15.368 22.508 15.742 22.372 16.031 22.083L24.106 14.008C24.684 13.43 24.684 12.495 24.106 11.9Z" fill="#D53539"/>
</svg>
